\relax 
\newlabel{@firstpg}{{}{1}}
\@writefile{toc}{\contentsline {section}{\numberline {1}Call for Contributions}{1}}
\@writefile{toc}{\contentsline {subsection}{\numberline {1.1}Scope and Topics}{1}}
\@writefile{toc}{\contentsline {subsection}{\numberline {1.2}Types of Submission}{2}}
\citation{Baeza-YatesR99}
\citation{BorgidaCL09}
\citation{FerreiraGALV09}
\citation{SilvaLC96}
\citation{LaenderMNM09}
\citation{Moro07}
\citation{xpath}
\@writefile{toc}{\contentsline {subsection}{\numberline {1.3}Submission Instructions}{3}}
\@writefile{toc}{\contentsline {subsection}{\numberline {1.4}Format Instructions}{3}}
\@writefile{toc}{\contentsline {section}{\numberline {2}LATEX Instructions}{3}}
\bibstyle{kdmile}
\bibdata{kdmileb}
\bibcite{Baeza-YatesR99}{\citeauthoryear {Baeza-Yates and Ribeiro-Neto}{Baeza-Yates and Ribeiro-Neto}{1999}}
\bibcite{xpath}{\citeauthoryear {Berglund, Boag, Chamberlin, Fern\'{a}ndez, Kay, Robie, and Siméon}{Berglund et\nobreakspace  {}al\unhbox \voidb@x \hbox {.}}{2007}}
\bibcite{BorgidaCL09}{\citeauthoryear {Borgida, Casanova, and Laender}{Borgida et\nobreakspace  {}al\unhbox \voidb@x \hbox {.}}{2009}}
\bibcite{SilvaLC96}{\citeauthoryear {da\nobreakspace  {}Silva, Laender, and Casanova}{da\nobreakspace  {}Silva et\nobreakspace  {}al\unhbox \voidb@x \hbox {.}}{1996}}
\bibcite{FerreiraGALV09}{\citeauthoryear {Ferreira, Gon\c {c}alves, Almeida, Laender, and Veloso}{Ferreira et\nobreakspace  {}al\unhbox \voidb@x \hbox {.}}{2009}}
\bibcite{LaenderMNM09}{\citeauthoryear {Laender, Moro, Nascimento, and Martins}{Laender et\nobreakspace  {}al\unhbox \voidb@x \hbox {.}}{2009}}
\bibcite{Moro07}{\citeauthoryear {Moro}{Moro}{2007}}
\@writefile{toc}{\contentsline {section}{\numberline {3}Most Common Errors}{8}}
\newlabel{@lastpg}{{3}{8}}
